Project 2
…
exp(coef(fit))

##           (Intercept) limitedaccessfoodrate      Household.Income 
##           0.002087343           0.993745502           1.000109233

#Confusion Matrix
join_conf<-joindata_log%>%drop_na(limitedaccessfoodrate)%>%mutate(prob=predict(fit, 
  type="response"), 
  prediction=ifelse(prob>0.5,1,0))
classify<-join_conf%>%transmute(prob,prediction,truth=Urb_binary)
classify

## # A tibble: 253 x 3
##     prob prediction truth
##    <dbl>      <dbl> <dbl>
##  1 0.163          0     0
##  2 0.665          1     0
##  3 0.216          0     0
##  4 0.237          0     1
##  5 0.541          1     1
##  6 0.437          0     1
##  7 0.287          0     1
##  8 0.619          1     1
##  9 0.167          0     0
## 10 0.454          0     1
## # ... with 243 more rows
…
