…
#Tidying "health" data#
health1 %>% spread(key="uninsured", value= "percentage uninsured")

## # A tibble: 254 x 15
##    County lifeexpectancy frequentmentald… diabeticrate foodinsecurerate
##    <fct>           <dbl>            <int>        <int>            <int>
##  1 Ander…           73.8               11           11               19
##  2 Andre…           76.8               10            9                9
##  3 Angel…           76.3               13           14               20
##  4 Arans…           76.9               12           14               16
##  5 Archer           77                 10           11               15
##  6 Armst…           72.4               10           11               14
##  7 Atasc…           78.3               11           12                9
##  8 Austin           79.1               11           10               16
##  9 Bailey           78.4               13           10               10
## 10 Bande…           80.3               11           11               15
## # … with 244 more rows, and 10 more variables: limitedaccessfoodrate <int>,
## #   Household.Income <int>, householdiincome_black <int>,
## #   householdincome_hispanic <int>, householdincome_white <int>,
## #   free_reduced_lunch_percent <int>, urbanization <fct>, border_status <fct>,
## #   uninsuredadultrate <int>, uninsuredchildrenrate <int>
…
## Observations: 508
## Variables: 4
## $ county                     <fct> Anderson, Anderson, Andrews, Andrews, Ange…
## $ costpermeal                <dbl> 2.75, 2.75, 2.94, 2.94, 2.94, 2.94, 2.95, …
## $ `food insecurity`          <chr> "foodinsecurityrate", "childfoodinsecurity…
## $ `percentage food insecure` <dbl> 0.182, 0.234, 0.084, 0.184, 0.189, 0.253, …

#Tidying "health" data#
mapmeal1 %>% spread(key="food insecurity", value= "percentage food insecure")

## # A tibble: 254 x 4
##    county    costpermeal childfoodinsecurityrate foodinsecurityrate
##    <fct>           <dbl>                   <dbl>              <dbl>
##  1 Anderson         2.75                   0.234              0.182
##  2 Andrews          2.94                   0.184              0.084
##  3 Angelina         2.94                   0.253              0.189
##  4 Aransas          2.95                   0.263              0.165
##  5 Archer           2.83                   0.201              0.14 
##  6 Armstrong        3.06                   0.203              0.131
##  7 Atascosa         2.78                   0.212              0.088
##  8 Austin           3.12                   0.228              0.147
##  9 Bailey           2.98                   0.243              0.112
## 10 Bandera          3.4                    0.255              0.145
## # … with 244 more rows
…
